{
  "trips": [
    {
      "uuid": "8d6d727b-bdcc-462c-aa77-14335e7a94af",
      "createdAt": 1590764788,
      "updatedAt": 1590764788,
      "title": "dd",
      "token": "03AGdBq25gGFE1O3auvg80whH8ypZpeiemXVfWGs4tig7s4cwAsh-_qVFStsU686yqjgnKhdsUe7J-44ifEns01osfGrXPF7l-PlyadinJnVPsP01cMTjzal2WqoWs-ClGwag0Zha_eo_rdILSQ40ym_lsKSs-4p0XuhJKkyhVye3PyHImhimZCFI6kvK4iKrurUn1NBSaPlyYMjgvBoqAieRgqc7ptJaR-MqiqveCuwjHSdxttJFtOIeS_KFe7nUjwej_qjZUlYJGudE3j22vtYZ4pGAIt9AvYCaGs4vBv8cKGqvLuXwDscwOw1CGSu4ASc3MfAEEA6MqDPoJus54wdkZeFz2Et_0McCF_TSi3sI1lSc88lp0qHDFD08HYeE-lVafeJOUOGwsDVXPDFjMnm8qREQIYHKv84m9ZvQVODgLocH8SiTqG_03ciR6ACHpqGhaolnw-jjv"
    },
    {
      "uuid": "1aab0783-469f-4262-be78-84e7e52f35ff",
      "createdAt": 1590934953,
      "updatedAt": 1590934953,
      "title": "hello"
    },
    {
      "uuid": "62036ca0-dad3-4898-9a2c-087524605c88",
      "createdAt": 1590939776,
      "updatedAt": 1590939776,
      "title": "sss"
    },
    {
      "uuid": "ce63af97-02c7-4de6-b2c5-bf27d16d29bd",
      "createdAt": 1590939802,
      "updatedAt": 1590939802,
      "title": "dwewe"
    },
    {
      "uuid": "5d09abfc-886b-4e4f-90fd-df215cfce8ac",
      "createdAt": 1591550847,
      "updatedAt": 1591550847,
      "title": "tata"
    },
    {
      "uuid": "30d051bb-f3d7-43fb-b7bd-01be7d35a3f7",
      "createdAt": 1591568840,
      "updatedAt": 1591568840,
      "title": "toto"
    },
    {
      "uuid": "53d1a82d-2a7a-4751-bec1-26eae813900b",
      "createdAt": 1591571208,
      "updatedAt": 1591571208,
      "title": "zzz"
    },
    {
      "uuid": "fc3afe84-7201-4ea1-86c4-6781c45d8d01",
      "createdAt": 1591637779,
      "updatedAt": 1591637779,
      "title": "cooool"
    }
  ],
  "comments": [],
  "steps": []
}